{
    "key": "group_57571f6377f24",
    "title": "Theme Options",
    "fields": [
        {
            "key": "field_5769982a0389a",
            "label": "404 Page",
            "name": "",
            "type": "tab",
            "instructions": "",
            "required": 0,
            "conditional_logic": 0,
            "wrapper": {
                "width": "",
                "class": "",
                "id": ""
            },
            "placement": "left",
            "endpoint": 0
        },
        {
            "key": "field_576998410389b",
            "label": "404 Error Page Text",
            "name": "error_page_text",
            "type": "wysiwyg",
            "instructions": "Set the page content to be displayed within the 404 Error Page.",
            "required": 0,
            "conditional_logic": 0,
            "wrapper": {
                "width": "",
                "class": "",
                "id": ""
            },
            "default_value": "<h1>Oops! That page can’t be found.<\/h1>\r\nIt looks like nothing was found at this location. Maybe try one of the links above or a search?",
            "tabs": "all",
            "toolbar": "full",
            "media_upload": 1,
            "delay": 0
        },
        {
            "key": "field_5769997f0389f",
            "label": "Social",
            "name": "",
            "type": "tab",
            "instructions": "",
            "required": 0,
            "conditional_logic": 0,
            "wrapper": {
                "width": "",
                "class": "",
                "id": ""
            },
            "placement": "top",
            "endpoint": 0
        },
        {
            "key": "field_5e8cf5f32e58f",
            "label": "Use Social Links?",
            "name": "use_social_links",
            "type": "true_false",
            "instructions": "",
            "required": 0,
            "conditional_logic": 0,
            "wrapper": {
                "width": "",
                "class": "",
                "id": ""
            },
            "message": "",
            "default_value": 0,
            "ui": 1,
            "ui_on_text": "",
            "ui_off_text": ""
        },
        {
            "key": "field_5769998f038a0",
            "label": "Social Links",
            "name": "social_links",
            "type": "repeater",
            "instructions": "Add social links here.",
            "required": 0,
            "conditional_logic": [
                [
                    {
                        "field": "field_5e8cf5f32e58f",
                        "operator": "==",
                        "value": "1"
                    }
                ]
            ],
            "wrapper": {
                "width": "",
                "class": "",
                "id": ""
            },
            "collapsed": "",
            "min": 0,
            "max": 0,
            "layout": "table",
            "button_label": "Add Social Link",
            "sub_fields": [
                {
                    "key": "field_576999b0038a1",
                    "label": "Social Media Icon",
                    "name": "social_media_icon",
                    "type": "select",
                    "instructions": "Choose a social media icon here. These are taken from <a href=\"https:\/\/fortawesome.github.io\/Font-Awesome\/\" target=\"_blank\">fontawesome. <\/a>",
                    "required": 0,
                    "conditional_logic": 0,
                    "wrapper": {
                        "width": "25",
                        "class": "",
                        "id": ""
                    },
                    "choices": {
                        "fa-facebook": "Facebook f",
                        "fa-facebook-official": "Facebook Official",
                        "fa-facebook-square": "Facebook Square",
                        "fa-twitter": "Twitter Bird",
                        "fa-twitter-square": "Twitter Square",
                        "fa-instagram": "Instagram",
                        "fa-linkedin": "LinkedIn",
                        "fa-behance": "Behance",
                        "fa-behance-square": "Behance Square",
                        "fa-youtube": "YouTube",
                        "fa-youtube-play": "YouTube Play Button",
                        "fa-youtube-square": "YouTube Square",
                        "fa-flickr": "Flickr",
                        "fa-google": "Google G",
                        "fa-google-plus": "Google +",
                        "fa-google-plus-square": "Google Square",
                        "fa-pinterest": "Pinterest Circle",
                        "fa-pinterest-p": "Pinterest P",
                        "fa-pinterest-square": "Pinterest Square",
                        "fa-rss": "RSS Feed",
                        "fa-rss-square": "RSS Feed Square",
                        "fa-envelope": "Envelope",
                        "fa-envelope-o": "Envelope Outline"
                    },
                    "default_value": [],
                    "allow_null": 0,
                    "multiple": 0,
                    "ui": 0,
                    "ajax": 0,
                    "return_format": "value",
                    "placeholder": ""
                },
                {
                    "key": "field_576999d8038a2",
                    "label": "Social Link",
                    "name": "social_link",
                    "type": "text",
                    "instructions": "Enter the url for the social media page or mail to link.",
                    "required": 0,
                    "conditional_logic": 0,
                    "wrapper": {
                        "width": 75,
                        "class": "",
                        "id": ""
                    },
                    "default_value": "",
                    "placeholder": "",
                    "prepend": "",
                    "append": "",
                    "maxlength": "",
                    "readonly": 0,
                    "disabled": 0
                }
            ]
        },
        {
            "key": "field_57699a2d038a3",
            "label": "Site Logos",
            "name": "",
            "type": "tab",
            "instructions": "",
            "required": 0,
            "conditional_logic": 0,
            "wrapper": {
                "width": "",
                "class": "",
                "id": ""
            },
            "placement": "top",
            "endpoint": 0
        },
        {
            "key": "field_57699a3e038a4",
            "label": "Site Header Logo",
            "name": "site_header_logo",
            "type": "image",
            "instructions": "Add a site header logo, upload a transparent .png file for the logo.",
            "required": 0,
            "conditional_logic": 0,
            "wrapper": {
                "width": "",
                "class": "",
                "id": ""
            },
            "return_format": "array",
            "preview_size": "thumbnail",
            "library": "all",
            "min_width": "",
            "min_height": "",
            "min_size": "",
            "max_width": "",
            "max_height": "",
            "max_size": "",
            "mime_types": ""
        },
        {
            "key": "field_57699a6d038a5",
            "label": "Site Favicon",
            "name": "site_favicon",
            "type": "image",
            "instructions": "Upload a 16x16 .ico file for the favicon. You can also visit <a href=\"http:\/\/www.favicon-generator.org\" target=\"_blank\">www.favicon-generator.org<\/a> to generate a favicon for your site.",
            "required": 0,
            "conditional_logic": 0,
            "wrapper": {
                "width": "",
                "class": "",
                "id": ""
            },
            "return_format": "array",
            "preview_size": "thumbnail",
            "library": "all",
            "min_width": "",
            "min_height": "",
            "min_size": "",
            "max_width": "",
            "max_height": "",
            "max_size": "",
            "mime_types": ""
        },
        {
            "key": "field_57699a88038a6",
            "label": "Site Login Logo",
            "name": "site_login_logo",
            "type": "image",
            "instructions": "Add a login logo to your site.",
            "required": 0,
            "conditional_logic": 0,
            "wrapper": {
                "width": "",
                "class": "",
                "id": ""
            },
            "return_format": "array",
            "preview_size": "full",
            "library": "all",
            "min_width": "",
            "min_height": "",
            "min_size": "",
            "max_width": "",
            "max_height": "",
            "max_size": "",
            "mime_types": ""
        },
        {
            "key": "field_581228162fbf1",
            "label": "Admin Logo",
            "name": "admin_logo",
            "type": "image",
            "instructions": "Upload a logo that will be used for the backend admin area. It will appear at the top left above your admin menu. PNG files with transparent backgrounds work best as well as a monochromatic (white version) of your logo. <em>Size should not exceed 175px X 75px.<\/em>",
            "required": 0,
            "conditional_logic": 0,
            "wrapper": {
                "width": "",
                "class": "",
                "id": ""
            },
            "return_format": "array",
            "preview_size": "thumbnail",
            "library": "all",
            "min_width": "",
            "min_height": "",
            "min_size": "",
            "max_width": "",
            "max_height": "",
            "max_size": "",
            "mime_types": ""
        },
        {
            "key": "field_57699b0d3053c",
            "label": "Apple Touch Icons",
            "name": "",
            "type": "tab",
            "instructions": "",
            "required": 0,
            "conditional_logic": 0,
            "wrapper": {
                "width": "",
                "class": "",
                "id": ""
            },
            "placement": "top",
            "endpoint": 0
        },
        {
            "key": "field_57699b2d3053d",
            "label": "iPhone",
            "name": "iphone",
            "type": "image",
            "instructions": "Specify a custom icon to be displayed on a users Apple mobile device when they save your website to their home screen. \r\n<a href=\"http:\/\/iconifier.net\/\" target=\"_blank\">Free online icon generator tool.<\/a>\r\n\r\n57px x 57px",
            "required": 0,
            "conditional_logic": 0,
            "wrapper": {
                "width": "",
                "class": "",
                "id": ""
            },
            "return_format": "array",
            "preview_size": "thumbnail",
            "library": "all",
            "min_width": "",
            "min_height": "",
            "min_size": "",
            "max_width": "",
            "max_height": "",
            "max_size": "",
            "mime_types": ""
        },
        {
            "key": "field_57699b5c3053e",
            "label": "iPhone (Retina)",
            "name": "iphone_retina",
            "type": "image",
            "instructions": "Specify a custom icon to be displayed on a users Apple mobile device when they save your website to their home screen. \r\n<a href=\"http:\/\/iconifier.net\/\" target=\"_blank\">Free online icon generator tool.<\/a>\r\n\r\n114px x 114px",
            "required": 0,
            "conditional_logic": 0,
            "wrapper": {
                "width": "",
                "class": "",
                "id": ""
            },
            "return_format": "array",
            "preview_size": "thumbnail",
            "library": "all",
            "min_width": "",
            "min_height": "",
            "min_size": "",
            "max_width": "",
            "max_height": "",
            "max_size": "",
            "mime_types": ""
        },
        {
            "key": "field_57699b6a3053f",
            "label": "iPad",
            "name": "ipad",
            "type": "image",
            "instructions": "Specify a custom icon to be displayed on a users Apple mobile device when they save your website to their home screen. \r\n<a href=\"http:\/\/iconifier.net\/\" target=\"_blank\">Free online icon generator tool.<\/a>\r\n\r\n72px x 72px",
            "required": 0,
            "conditional_logic": 0,
            "wrapper": {
                "width": "",
                "class": "",
                "id": ""
            },
            "return_format": "array",
            "preview_size": "thumbnail",
            "library": "all",
            "min_width": "",
            "min_height": "",
            "min_size": "",
            "max_width": "",
            "max_height": "",
            "max_size": "",
            "mime_types": ""
        },
        {
            "key": "field_57699b8430540",
            "label": "iPad (Retina)",
            "name": "ipad_retina",
            "type": "image",
            "instructions": "Specify a custom icon to be displayed on a users Apple mobile device when they save your website to their home screen. \r\n<a href=\"http:\/\/iconifier.net\/\" target=\"_blank\">Free online icon generator tool.<\/a>\r\n\r\n144px x 144px",
            "required": 0,
            "conditional_logic": 0,
            "wrapper": {
                "width": "",
                "class": "",
                "id": ""
            },
            "return_format": "array",
            "preview_size": "thumbnail",
            "library": "all",
            "min_width": "",
            "min_height": "",
            "min_size": "",
            "max_width": "",
            "max_height": "",
            "max_size": "",
            "mime_types": ""
        },
        {
            "key": "field_57699c0b585b9",
            "label": "Google Analytics",
            "name": "",
            "type": "tab",
            "instructions": "",
            "required": 0,
            "conditional_logic": 0,
            "wrapper": {
                "width": "",
                "class": "",
                "id": ""
            },
            "placement": "top",
            "endpoint": 0
        },
        {
            "key": "field_57699c2c585ba",
            "label": "Google Analytics Location",
            "name": "google_analytics_location",
            "type": "select",
            "instructions": "Select whether your Google Analytics Code will appear on either the header or the footer of your site.",
            "required": 1,
            "conditional_logic": 0,
            "wrapper": {
                "width": "",
                "class": "",
                "id": ""
            },
            "choices": {
                "header": "Header",
                "footer": "Footer"
            },
            "default_value": [
                0
            ],
            "allow_null": 0,
            "multiple": 0,
            "ui": 0,
            "ajax": 0,
            "placeholder": "",
            "disabled": 0,
            "readonly": 0,
            "return_format": "value"
        },
        {
            "key": "field_57699c5d585bb",
            "label": "Google Analytics Code",
            "name": "google_analytics_code",
            "type": "textarea",
            "instructions": "Copy and paste your Google Analytics code here. You can sign up for Google Analytics and obtain a tracking code <a href=\"http:\/\/www.google.com\/analytics\/\" target=\"_blank\">here.<\/a>",
            "required": 0,
            "conditional_logic": 0,
            "wrapper": {
                "width": "",
                "class": "",
                "id": ""
            },
            "default_value": "<script type=\"text\/javascript\">\r\n   \/\/ <![CDATA[\r\n   var _gaq = _gaq || [];\r\n   _gaq.push(['_setAccount', 'UA-00000000-1']);\r\n   _gaq.push(['_setAllowLinker', true]);\r\n   _gaq.push(['_trackPageview']);\r\n   (function() {\r\n       var ga = document.createElement('script'); ga.type = 'text\/javascript'; ga.async = true;\r\n       ga.src = ('https:' == document.location.protocol ? 'https:\/\/ssl' : 'http:\/\/www') + '.google-analytics.com\/ga.js';\r\n       var s = document.getElementsByTagName('script')[0]; s.parentNode.insertBefore(ga, s);\r\n   })();\r\n   \/\/    ]]>\r\n<\/script>",
            "placeholder": "",
            "maxlength": "",
            "rows": "",
            "new_lines": ""
        },
        {
            "key": "field_5ba3cd4a181d8",
            "label": "Site Header Code",
            "name": "",
            "type": "tab",
            "instructions": "",
            "required": 0,
            "conditional_logic": 0,
            "wrapper": {
                "width": "",
                "class": "",
                "id": ""
            },
            "placement": "top",
            "endpoint": 0
        },
        {
            "key": "field_5ba3cee68118f",
            "label": "Add Site Header Code?",
            "name": "add_site_header_code",
            "type": "true_false",
            "instructions": "",
            "required": 0,
            "conditional_logic": 0,
            "wrapper": {
                "width": "",
                "class": "",
                "id": ""
            },
            "message": "",
            "default_value": 0,
            "ui": 1,
            "ui_on_text": "",
            "ui_off_text": ""
        },
        {
            "key": "field_5ba3ccb2181d7",
            "label": "Header Code",
            "name": "header_code",
            "type": "textarea",
            "instructions": "Add site header code here (example. facebook pixel etc.).",
            "required": 0,
            "conditional_logic": [
                [
                    {
                        "field": "field_5ba3cee68118f",
                        "operator": "==",
                        "value": "1"
                    }
                ]
            ],
            "wrapper": {
                "width": "",
                "class": "",
                "id": ""
            },
            "default_value": "<!-- Facebook Pixel Code -->\r\n<script>\r\n!function(f,b,e,v,n,t,s){if(f.fbq)return;n=f.fbq=function(){n.callMethod?\r\nn.callMethod.apply(n,arguments):n.queue.push(arguments)};if(!f._fbq)f._fbq=n;\r\nn.push=n;n.loaded=!0;n.version='2.0';n.queue=[];t=b.createElement(e);t.async=!0;\r\nt.src=v;s=b.getElementsByTagName(e)[0];s.parentNode.insertBefore(t,s)}(window,\r\ndocument,'script','https:\/\/connect.facebook.net\/en_US\/fbevents.js');\r\n\/\/ Insert Your Facebook Pixel ID below. \r\nfbq('init', 'FB_PIXEL_ID');\r\nfbq('track', 'PageView');\r\n<\/script>\r\n<!-- Insert Your Facebook Pixel ID below. --> \r\n<noscript><img height=\"1\" width=\"1\" style=\"display:none\"\r\nsrc=\"https:\/\/www.facebook.com\/tr?id=FB_PIXEL_ID&amp;ev=PageView&amp;noscript=1\"\r\n\/><\/noscript>\r\n<!-- End Facebook Pixel Code -->",
            "placeholder": "",
            "maxlength": "",
            "rows": "",
            "new_lines": ""
        }
    ],
    "location": [
        [
            {
                "param": "options_page",
                "operator": "==",
                "value": "theme-general-settings"
            }
        ]
    ],
    "menu_order": 0,
    "position": "normal",
    "style": "default",
    "label_placement": "top",
    "instruction_placement": "label",
    "hide_on_screen": "",
    "active": 1,
    "description": "",
    "modified": 1586296899
}